# Fake controllers to test sdl2:game-controller-add-mappings-from-file
01234567890121234567890123456789,Foo,a:b1,platform:Android,
34567890123456789012345678901234,Bar,a:b2,platform:Android,
01234567890121234567890123456789,Foo,a:b1,platform:iOS,
34567890123456789012345678901234,Bar,a:b2,platform:iOS,
01234567890121234567890123456789,Foo,a:b1,platform:Linux,
34567890123456789012345678901234,Bar,a:b2,platform:Linux,
01234567890121234567890123456789,Foo,a:b1,platform:Mac OS X,
34567890123456789012345678901234,Bar,a:b2,platform:Mac OS X,
01234567890121234567890123456789,Foo,a:b1,platform:Windows,
34567890123456789012345678901234,Bar,a:b2,platform:Windows,
